{
  "users": [
    {
      "email": "email@mail.com"
    }
  ],
  "users-auth": [
    {
      "email": "email@mail.com",
      "password": "123",
      "salt": "w7^9T4gIfv2$",
      "token": "eyJ0eXAiOiJKV1QiLCJhbGciOiJIUzI1NiJ9.eyJlbWFpbCI6ImVtYWlsQG1haWwuY29tIn0.OmiQ54viXJHlopRaE4W-H-Yial5BwT1TPYUzhI2Pjq8"
    }
  ],
  "users-token": [
    {
      "email": "email@mail.com",
      "token": "eyJ0eXAiOiJKV1QiLCJhbGciOiJIUzI1NiJ9.eyJlbWFpbCI6ImVtYWlsQG1haWwuY29tIn0.OmiQ54viXJHlopRaE4W-H-Yial5BwT1TPYUzhI2Pjq8"
    }
  ],
  "authors": [
    {
      "name": "Flaim"
    },
    {
      "name": "Zams"
    },
    {
      "name": "Dorilys"
    }
  ],
  "courses": [
    {
      "id": 101,
      "title": "Video Course 1. Name tag",
      "creationDate": "2019-12-08T22:00:54.578Z",
      "durationMin": 59,
      "description": "Learn about where you can find course descriptions, what information they include, how they work. 101",
      "isTopRated": false,
      "authors": [
        {
          "name": "Flaim"
        }
      ]
    },
    {
      "id": 102,
      "title": "Video Course 2. Name tag",
      "creationDate": "2019-12-08T22:00:54.578Z",
      "durationMin": 120,
      "description": "Learn about where you can find course descriptions, what information they include, how they work. 102",
      "isTopRated": false,
      "authors": [
        {
          "name": "Flaim"
        }
      ]
    },
    {
      "id": 103,
      "title": "Video Course 3. Name tag",
      "creationDate": "2019-12-08T22:00:54.578Z",
      "durationMin": 121,
      "description": "Learn about where you can find course descriptions, what information they include, how they work. 103",
      "isTopRated": true,
      "authors": [
        {
          "name": "Flaim"
        }
      ]
    },
    {
      "id": 104,
      "title": "Video Course 4. Name tag",
      "creationDate": "2019-12-08T22:00:54.578Z",
      "durationMin": 59,
      "description": "Learn about where you can find course descriptions, what information they include, how they work. 104",
      "isTopRated": false,
      "authors": [
        {
          "name": "Flaim"
        }
      ]
    },
    {
      "id": 105,
      "title": "Video Course 5. Name tag",
      "creationDate": "2019-12-08T22:00:54.578Z",
      "durationMin": 120,
      "description": "Learn about where you can find course descriptions, what information they include, how they work. 105",
      "isTopRated": false,
      "authors": [
        {
          "name": "Flaim"
        }
      ]
    },
    {
      "id": 106,
      "title": "Video Course 6. Name tag",
      "creationDate": "2019-12-08T22:00:54.578Z",
      "durationMin": 121,
      "description": "Learn about where you can find course descriptions, what information they include, how they work. 106",
      "isTopRated": true,
      "authors": [
        {
          "name": "Flaim"
        }
      ]
    }
  ]
}